{
    "app.title": "eClaim",
    "app.profile": "Personal information",
    "app.claims": "Filing claims",
    "app.payment": "Claims payment",
    "app.user.full_name": "Name - Surname",
    "app.user.full_name_placeholder": "Please enter your full name.",
    "app.user.national_id": "ID card no.",
    "app.user.national_id_placeholder": "*",
    "app.user.date_of_birth": "Date of Birth",
    "app.user.date_of_birth_placeholder": "*",
    "app.user.policy_no": "Policy no.",
    "app.user.policy_no_placeholder": " ",
    "app.user.phone": "Mobile phone no.",
    "app.user.phone_placeholder": "*",
    "app.user.email": "E-mail",
    "app.user.email_placeholder": "*",
  
    "app.user.claimant": "Sender of this claim",
    "app.user.claimant_option_1": "Insured",
    "app.user.claimant_option_2": "Parent",
    "app.user.claimant_option_3": "Beneficiary",
    "app.user.claimant_option_4": "Agent",
    "app.user.claimant_option_5": "Other",
  
    "app.claim_type": "Claim Type",
  
    "app.user.claim_type_option_1":"Hospital Indemnity Benefit",
    "app.user.claim_type_option_2":"Accident Indemnity benefit(Pantial Temporary Disability)",
    "app.user.claim_type_option_3":"Medical expenses benefit (Sickness&Accident) ",
    "app.user.claim_type_option_4":"Total permanent disability benefit",
    "app.user.claim_type_option_5":"Critical Illness",
    "app.user.claim_type_option_6":"Death",
  
    "app.claim_docs":"Required documents",
    "app.claim_browse_title":"Upload documents",
    "app.claim_docs_1":"Medical Certificate",
    "app.claim_docs_2":"Copy of original medical receipt / Details of medical expenses",
    "app.claim_docs_3":"X-ray report or Photo of injured area",
    "app.claim_docs_4":"Original medical receipt",
    "app.claim_docs_5":"Details of Medical expenses",
    "app.claim_docs_6":"Physician's statement using company's form",
    "app.claim_docs_7":"Laboratory report   Ex. X-Ray report, CT Report or Photos of injured area.",
    "app.claim_docs_8":"Pathological report or other Laboratory report  Ex. X-Ray Report, CT Report",
    "app.claim_docs_9":"Claimant's statement",
    "app.claim_docs_10":"Physician's statement",
    "app.claim_docs_11":"Copy of death certificate",
    "app.claim_docs_12":"Copy of Insured's household registration and Insured's ID Card marked \"dead\" and certified true copy by beneficiary ",
    "app.claim_docs_13":"Copy of household registration and  ID card Of all beneficiaries.",
    "app.claim_docs_h_1":"<u>For minor beneficiary</u> add these following documents",
    "app.claim_docs_14":"Copy of legal representative's household registration and legal representative's ID card with certified true copy  (attach the court order appointing a guardian in case the legal representative is not father or mother)",
    "app.claim_docs_99":"Other documents",

    "app.error.overfilesize":"File size exceeds the limit.",


    
  "app.files.remark":"Only .png, .jpg, .bmp or pdf file can be uploaded. File size must not exceed {maxSize} MB ( {size} ) ",

  "app.user.address_type":"Mailing address",
  "app.user.address_type_current":"Current address (as stated in the policy )",
  "app.user.address_type_other":"Other address (Only this time)",

  "app.user.address_line_1":"No. / Village / Road / Soi",
  "app.user.address_line_2":"District",
  "app.user.address_line_3":"Area / District",
  "app.user.address_province":"Province",
  "app.user.address_code":"Zip code",

  "app.user.payment_type": "Payment method",
  "app.user.payment_type_cheque": "Cheque",
  "app.user.payment_type_bank": "Bank transfer (Please attach copy of book bank)",

  "app.please_select": "Please select",
  "app.previous": "Previous",
  "app.back": "Back",
  "app.next": "Next",
  "app.please_fill": "Please specify",
  "app.error.limitFileSize": "File size exceeds the limit.",
  "app.error.required": "* Please fill in the information",
  "app.error.requiredFile": "* Please attach documents for consideration.",
  "app.error.wrongFormat": "* Please enter valid information.",
  "app.browse":"Select file",


  "app.download.error":"Document cannot be created.",
  "app.download.errorContact":"Please contact Customer Service at 1621.",
  "app.loading": "Loading... ",


  "app.sending": "Sending data, please do not close this page.",


  "app.success": "<span class=\"title is-4 has-text-success\">Successful</span> <br/> We will contact you if additional information is needed <br/> You can check your claim status via PRU policy web portal <br/> or Customer service center Tel. 1621",
  "app.failed": "We are unable to process your request at this moment. Please try again later.",
  "app.finished": "Finish",
  "app.ref.notice" : "Remember this code. <br/>  In case you want to contact the staff later."
  ,"app.no_result":"No result for : "
  }